Division,WeightClassKg,Place,Name,Team,BodyweightKg,Best3SquatKg,Best3BenchKg,Best3DeadliftKg,TotalKg,Equipment,Event,Sex,BirthDate
Boys,51.71,1,Marco Castelli,Lake Belton,50.17,92.99,52.16,102.06,247.21,Single-ply,SBD,M,
Boys,51.71,2,Aidan Valdez,Rosebud-Lott,47.36,88.45,52.16,102.06,242.67,Single-ply,SBD,M,
Boys,51.71,3,Blaine Ehler,Bruceville-Eddy,44.63,72.57,38.56,90.72,201.85,Single-ply,SBD,M,
Boys,55.79,1,Isrrael Rosas,Bruceville-Eddy,52.25,138.35,77.11,151.95,367.41,Single-ply,SBD,M,
Boys,59.87,1,Tom Cacciatore,Bruceville-Eddy,59.69,124.74,68.04,127.01,319.78,Single-ply,SBD,M,
Boys,59.87,2,Rylan Norwood,Lake Belton,59.42,120.2,70.31,127.01,317.51,Single-ply,SBD,M,
Boys,59.87,3,Tyler Case,Dawson,59.33,102.06,68.04,142.88,312.98,Single-ply,SBD,M,
Boys,59.87,4,Damon Pierce,Valley Mills,58.97,117.93,61.23,117.93,297.1,Single-ply,SBD,M,
Boys,59.87,5,Chyne Boxley,Hearne,59.87,106.59,54.43,122.47,283.5,Single-ply,SBD,M,
Boys,67.13,1,DeMarcus Jackson,Dawson,66.22,165.56,83.91,151.95,401.43,Single-ply,SBD,M,
Boys,67.13,2,Cooper Staton,Moody,65.23,122.47,70.31,133.81,326.59,Single-ply,SBD,M,
Boys,67.13,3,Christopher Bailey,Bruceville-Eddy,66.95,113.4,65.77,133.81,312.98,Single-ply,SBD,M,
Boys,67.13,4,Jamal Davenport,Hearne,65.77,68.04,38.56,86.18,192.78,Single-ply,SBD,M,
Boys,67.13,DQ,Jacob Jankowski,Dawson,66.13,145.15,74.84,,,Single-ply,SBD,M,
Boys,74.84,1,Colby Tolbert,Bruceville-Eddy,74.39,183.7,106.59,174.63,464.93,Single-ply,SBD,M,
Boys,74.84,2,Moses Fox,Rosebud-Lott,67.59,147.42,102.06,138.35,387.82,Single-ply,SBD,M,
Boys,74.84,3,Gabriel Hawthorne,Dawson,70.58,92.99,54.43,102.06,249.48,Single-ply,SBD,M,
Boys,74.84,DQ,Jd Elkins,Dawson,70.03,142.88,65.77,,,Single-ply,SBD,M,
Boys,74.84,DQ,Keith Dailey,Moody,72.67,,,,,Single-ply,SBD,M,
Boys,74.84,DQ,Jesse Hughling,Bruceville-Eddy,71.12,,,,,Single-ply,SBD,M,
Boys,82.1,1,Keyshawn Langham,Hearne,78.93,158.76,83.91,149.69,392.36,Single-ply,SBD,M,
Boys,82.1,2,Noah Stinnette,Bruceville-Eddy,75.75,113.4,68.04,127.01,308.44,Single-ply,SBD,M,
Boys,82.1,3,Jackson Clark,Valley Mills,82.01,108.86,56.7,99.79,265.35,Single-ply,SBD,M,
Boys,82.1,DQ,Da'Mariyea Hamilton,Dawson,81.01,,,,,Single-ply,SBD,M,
Boys,82.1,DQ,Jonah Bradshaw,Moody,76.84,124.74,102.06,,,Single-ply,SBD,M,
Boys,89.81,1,Eddie Guerra,Dawson,84.82,188.24,97.52,181.44,467.2,Single-ply,SBD,M,
Boys,89.81,2,Hunter Boatright,Dawson,86.45,176.9,99.79,151.95,428.64,Single-ply,SBD,M,
Boys,89.81,3,Alvin Clarkson-Williams,Rosebud-Lott,83.46,122.47,70.31,138.35,331.12,Single-ply,SBD,M,
Boys,89.81,DQ,Kyle Wright,Valley Mills,88.09,,,,,Single-ply,SBD,M,
Boys,99.79,1,Colson Klemcke,Valley Mills,99.34,156.49,102.06,165.56,424.11,Single-ply,SBD,M,
Boys,99.79,2,Elijah Flores,Rosebud-Lott,99.79,154.22,104.33,142.88,401.43,Single-ply,SBD,M,
Boys,99.79,3,Christian Teichelman,Valley Mills,95.89,163.29,72.57,136.08,371.95,Single-ply,SBD,M,
Boys,99.79,4,Isaac Garcia,Bruceville-Eddy,97.34,142.88,65.77,151.95,360.61,Single-ply,SBD,M,
Boys,99.79,5,Nicholaus Squyres,Bruceville-Eddy,92.08,133.81,90.72,133.81,358.34,Single-ply,SBD,M,
Boys,99.79,6,Carson Carter,Bruceville-Eddy,91.63,124.74,70.31,136.08,331.12,Single-ply,SBD,M,
Boys,109.77,1,Hunter Carter,Bruceville-Eddy,103.69,249.48,129.27,204.12,582.87,Single-ply,SBD,M,
Boys,109.77,2,Henry Stone,Lake Belton,104.14,165.56,102.06,156.49,424.11,Single-ply,SBD,M,
Boys,109.77,3,Sammy Simons,Bruceville-Eddy,104.14,158.76,90.72,136.08,385.55,Single-ply,SBD,M,
Boys,109.77,4,Cole Alton,Moody,106.23,136.08,86.18,140.61,362.87,Single-ply,SBD,M,
Boys,109.77,DQ,Hunter Mach,Moody,105.78,213.19,124.74,,,Single-ply,SBD,M,
Boys,124.74,1,Steven Craft-Mitchell,Hearne,114.31,272.16,131.54,229.06,632.76,Single-ply,SBD,M,
Boys,124.74,2,Cameron Spain,Dawson,117.03,226.8,136.08,222.26,585.13,Single-ply,SBD,M,
Boys,124.74,3,Challen Maileoi,Lake Belton,123.83,233.6,138.35,201.85,573.79,Single-ply,SBD,M,
Boys,124.74,4,Lance Hamm,Hearne,114.76,213.19,138.35,181.44,532.97,Single-ply,SBD,M,
Boys,124.74,DQ,Michael Wren,Dawson,112.31,154.22,81.65,,,Single-ply,SBD,M,
Boys,124.74,DQ,J'Kyrin Flentroy,Hearne,114.31,142.88,90.72,,,Single-ply,SBD,M,
Boys,139.71,1,Davis Orr,Moody,136.08,226.8,161.03,226.8,614.62,Single-ply,SBD,M,
Boys,139.71,2,Easton Fulton,Rosebud-Lott,127.91,219.99,142.88,219.99,582.87,Single-ply,SBD,M,
Boys,139.71+,1,Adam Walden,Lake Belton,158.3,192.78,115.67,174.63,483.08,Single-ply,SBD,M,
Boys,,NS,Nolan Khalig,Rosebud-Lott,,,,,,Single-ply,SBD,M,
Boys,,NS,Jeremy Seymore,Hearne,,,,,,Single-ply,SBD,M,
