Division,WeightClassKg,Place,Name,Team,BodyweightKg,Best3SquatKg,Best3BenchKg,Best3DeadliftKg,TotalKg,Equipment,Event,Sex
Boys,55.79,1,John Clerihew,Olney,51.89,151.95,79.38,161.03,392.36,Single-ply,SBD,M
Boys,55.79,2,Joey Salinas #1,Jacksboro,51.8,131.54,70.31,142.88,344.73,Single-ply,SBD,M
Boys,51.71,3,Trevor Richard,Chico,51.62,111.13,63.5,136.08,310.71,Single-ply,SBD,M
Boys,51.71,4,Jonathan Esquivel,Melissa,49.99,120.2,65.77,122.47,308.44,Single-ply,SBD,M
Boys,51.71,5,Troy Johnson,Chico,50.17,106.59,52.16,136.08,294.84,Single-ply,SBD,M
Boys,51.71,6,Zack Miller,Ponder,51.53,111.13,52.16,120.2,283.5,Single-ply,SBD,M
Boys,51.71,7,Evan Howard,Tom Bean,51.35,108.86,52.16,115.67,276.69,Single-ply,SBD,M
Boys,51.71,8,Aditya Misra,Oakridge School,51.35,99.79,52.16,120.2,272.16,Single-ply,SBD,M
Boys,55.79,9,Luis Berumen,Strawn,51.89,97.52,47.63,102.06,247.21,Single-ply,SBD,M
Boys,51.71,10,Dylan Hooper,Oakridge School,51.07,81.65,49.9,97.52,229.06,Single-ply,SBD,M
Boys,55.79,DQ,Andrew Hernandez,Electra,51.89,,,,,Single-ply,SBD,M
Boys,55.79,1,Jd Franke,Henrietta,54.98,183.7,92.99,167.83,444.52,Single-ply,SBD,M
Boys,59.87,2,Stephen Nelson,Pottsboro,55.97,165.56,90.72,167.83,424.11,Single-ply,SBD,M
Boys,55.79,3,Weston Decker,Peaster,55.7,149.69,83.91,176.9,410.5,Single-ply,SBD,M
Boys,55.79,4,Christian Farr,Henrietta,54.98,136.08,83.91,154.22,374.21,Single-ply,SBD,M
Boys,55.79,5,Trevor Agan,Blue Ridge,55.07,124.74,68.04,136.08,328.85,Single-ply,SBD,M
Boys,55.79,6,Ivan Karabanoff,Peaster,54.79,117.93,72.57,136.08,326.59,Single-ply,SBD,M
Boys,59.87,7,Sammy Henderson,Gordon,55.97,115.67,72.57,124.74,312.98,Single-ply,SBD,M
Boys,55.79,8,Koby Parker,Pottsboro,55.07,117.93,81.65,108.86,308.44,Single-ply,SBD,M
Boys,55.79,9,Coleman Chance,Ponder,54.43,117.93,63.5,124.74,306.17,Single-ply,SBD,M
Boys,55.79,10,Romario Hernandez,Krum,54.52,113.4,61.23,113.4,288.03,Single-ply,SBD,M
Boys,59.87,1,Walt Harden,Peaster,59.78,185.97,113.4,192.78,492.15,Single-ply,SBD,M
Boys,59.87,2,Alex Greene,Henrietta,58.24,170.1,92.99,172.37,435.45,Single-ply,SBD,M
Boys,59.87,3,Jj Masters,Sunnyvale,58.79,165.56,86.18,172.37,424.11,Single-ply,SBD,M
Boys,59.87,4,Harper Mays,Peaster,58.88,151.95,90.72,181.44,424.11,Single-ply,SBD,M
Boys,59.87,5,Taylor Ross,Nocona,59.24,149.69,92.99,172.37,415.04,Single-ply,SBD,M
Boys,59.87,6,Josiah Cansler,Perrin-Whitt,58.79,174.63,68.04,158.76,401.43,Single-ply,SBD,M
Boys,59.87,7,Stephen Steele,Pottsboro,59.6,140.61,86.18,154.22,381.02,Single-ply,SBD,M
Boys,59.87,8,Brandon Gee,Ponder,56.7,133.81,74.84,147.42,356.07,Single-ply,SBD,M
Boys,67.13,1,Garrett Truong,Oakridge School,64.86,208.65,113.4,215.46,537.51,Single-ply,SBD,M
Boys,74.84,2,Tri Hoang,Wichita Falls City View,67.31,176.9,86.18,242.67,505.76,Single-ply,SBD,M
Boys,67.13,3,Garrett Syfert,Pottsboro,65.05,204.12,104.33,195.04,503.49,Single-ply,SBD,M
Boys,74.84,4,Ben Song,Oakridge School,67.31,185.97,117.93,195.04,498.95,Single-ply,SBD,M
Boys,74.84,5,Victor Velazquez,Chico,67.31,183.7,90.72,210.92,485.34,Single-ply,SBD,M
Boys,67.13,6,Jeremy Croney,Sadler S & S Cons,65.5,192.78,88.45,197.31,478.54,Single-ply,SBD,M
Boys,67.13,7,Zane Schrader,Olney,64.68,190.51,102.06,183.7,476.27,Single-ply,SBD,M
Boys,74.84,8,Tyler Sullivan,Petrolia,67.31,181.44,97.52,174.63,453.59,Single-ply,SBD,M
Boys,67.13,9,Brayden Frank,Oakridge School,66.13,172.37,92.99,174.63,439.98,Single-ply,SBD,M
Boys,67.13,10,Thomas Trice,Alvord,65.68,147.42,102.06,158.76,408.23,Single-ply,SBD,M
Boys,74.84,1,Colton Redman,Alvord,73.57,238.14,127.01,233.6,598.74,Single-ply,SBD,M
Boys,74.84,2,James Jackson #4,Callisburg,72.39,195.04,131.54,226.8,553.38,Single-ply,SBD,M
Boys,82.1,3,Norman James,Wichita Falls City View,74.93,204.12,142.88,204.12,551.11,Single-ply,SBD,M
Boys,74.84,4,Dru Hull,Sadler S & S Cons,74.75,210.92,129.27,204.12,544.31,Single-ply,SBD,M
Boys,74.84,5,Stoney Newberry,Henrietta,74.3,195.04,129.27,208.65,532.97,Single-ply,SBD,M
Boys,74.84,6,Ramon Salazar,Jacksboro,74.39,217.72,117.93,195.04,530.7,Single-ply,SBD,M
Boys,82.1,7,Justin Smith #20,Petrolia,75.02,204.12,104.33,213.19,521.63,Single-ply,SBD,M
Boys,74.84,8,Parker Purvis,Strawn,73.66,181.44,136.08,192.78,510.29,Single-ply,SBD,M
Boys,82.1,9,Michael Hohn,Oakridge School,75.02,151.95,102.06,226.8,480.81,Single-ply,SBD,M
Boys,74.84,DQ,Dustin Richards,Krum,73.84,,,,,Single-ply,SBD,M
Boys,82.1,1,Kyle Saunders,Peaster,79.47,226.8,136.08,238.14,601.01,Single-ply,SBD,M
Boys,82.1,2,Terence Jackson,Wichita Falls City View,80.83,219.99,127.01,251.74,598.74,Single-ply,SBD,M
Boys,82.1,3,Maxwell Dixon,Peaster,81.28,231.33,129.27,238.14,598.74,Single-ply,SBD,M
Boys,82.1,4,Miles Wilson,Oakridge School,81.74,229.06,122.47,238.14,589.67,Single-ply,SBD,M
Boys,82.1,5,Michael Williams,Dallas Life Oak Cliff,77.47,219.99,124.74,242.67,587.4,Single-ply,SBD,M
Boys,82.1,5,Michael Williams,Dallas Life Oak Cliff,77.47,219.99,124.74,242.67,587.4,Single-ply,SBD,M
Boys,82.1,6,Marcus Vera,Howe,78.93,249.48,120.2,201.85,571.53,Single-ply,SBD,M
Boys,82.1,7,Grant von Wellsheim,Oakridge School,80.65,199.58,120.2,219.99,539.77,Single-ply,SBD,M
Boys,82.1,8,Wes Hastings,Archer City,80.01,197.31,127.01,201.85,526.17,Single-ply,SBD,M
Boys,82.1,9,Cody Jones,Ponder,75.11,183.7,90.72,208.65,483.08,Single-ply,SBD,M
Boys,82.1,10,Jesse Brown,Alvord,80.1,170.1,108.86,170.1,449.06,Single-ply,SBD,M
Boys,89.81,1,Curt Allen,Oakridge School,87.91,294.84,185.97,276.69,757.5,Single-ply,SBD,M
Boys,89.81,2,Ivan Garcia #2,Peaster,88.18,219.99,154.22,222.26,596.47,Single-ply,SBD,M
Boys,89.81,3,Tyler Cobb,Paradise,84.1,201.85,122.47,213.19,537.51,Single-ply,SBD,M
Boys,89.81,4,Cody Morrison,Callisburg,84.46,226.8,117.93,190.51,535.24,Single-ply,SBD,M
Boys,89.81,5,Dylan House,Pottsboro,87.54,213.19,113.4,208.65,535.24,Single-ply,SBD,M
Boys,89.81,6,Casey Davis,Howe,86.36,188.24,122.47,206.38,517.1,Single-ply,SBD,M
Boys,89.81,7,David Kennedy,Oakridge School,83.1,170.1,120.2,215.46,505.76,Single-ply,SBD,M
Boys,89.81,8,Harrison Flinn,Pottsboro,82.74,176.9,111.13,201.85,489.88,Single-ply,SBD,M
Boys,89.81,9,Caiden Fenoglio,Nocona,84.19,176.9,124.74,183.7,485.34,Single-ply,SBD,M
Boys,89.81,10,Stephen Plowman,Gordon,86.64,181.44,108.86,195.04,485.34,Single-ply,SBD,M
Boys,99.79,1,Eduardo Webber,Howe,91.81,290.3,147.42,226.8,664.51,Single-ply,SBD,M
Boys,99.79,2,Eddie Avalos,Olney,96.34,272.16,147.42,226.8,646.37,Single-ply,SBD,M
Boys,99.79,3,Anthony Garcia,Wichita Falls City View,92.44,226.8,140.61,233.6,601.01,Single-ply,SBD,M
Boys,99.79,4,Joseph Costa,Henrietta,98.07,242.67,158.76,199.58,601.01,Single-ply,SBD,M
Boys,99.79,5,Tory Ferryman,Ponder,91.44,226.8,124.74,195.04,546.58,Single-ply,SBD,M
Boys,99.79,6,David Whited,Wichita Falls City View,98.34,213.19,120.2,181.44,514.83,Single-ply,SBD,M
Boys,99.79,7,Dj Hollis,Melissa,91.63,185.97,147.42,179.17,512.56,Single-ply,SBD,M
Boys,99.79,8,Ej Lozada,Jacksboro,95.53,183.7,92.99,210.92,487.61,Single-ply,SBD,M
Boys,99.79,9,Austin Williamson,Jacksboro,92.26,183.7,122.47,167.83,474,Single-ply,SBD,M
Boys,99.79,DQ,Jared Smith,Petrolia,96.52,,,,,Single-ply,SBD,M
Boys,109.77,1,Justin Givens,Wichita Falls City View,105.96,231.33,142.88,233.6,607.81,Single-ply,SBD,M
Boys,109.77,2,Dylan Bloodworth,Honey Grove,104.24,226.8,145.15,215.46,587.4,Single-ply,SBD,M
Boys,109.77,3,Blake Hawkins,Pottsboro,109.23,226.8,142.88,210.92,580.6,Single-ply,SBD,M
Boys,109.77,4,Brad Shatto,Sadler S & S Cons,108.41,222.26,140.61,183.7,546.58,Single-ply,SBD,M
Boys,109.77,5,Casey Brock,Perrin-Whitt,109.13,215.46,113.4,192.78,521.63,Single-ply,SBD,M
Boys,109.77,6,David Lawson,Tom Bean,101.88,199.58,133.81,185.97,519.36,Single-ply,SBD,M
Boys,109.77,7,Heber Hernandez,Sadler S & S Cons,104.14,204.12,102.06,199.58,505.76,Single-ply,SBD,M
Boys,109.77,8,Billy Doyle,Pottsboro,100.97,210.92,104.33,176.9,492.15,Single-ply,SBD,M
Boys,124.74,9,Matthew Tucker,Jacksboro,109.95,183.7,92.99,188.24,464.93,Single-ply,SBD,M
Boys,109.77,10,Jose Tapia,Howe,100.33,163.29,113.4,172.37,449.06,Single-ply,SBD,M
Boys,124.74,1,Damon Hinrichs,Millsap,113.67,290.3,208.65,244.94,743.89,Single-ply,SBD,M
Boys,124.74,2,Jackson Cunningham,Paradise,117.66,288.03,195.04,238.14,721.21,Single-ply,SBD,M
Boys,124.74,3,Joe King,Breckenridge,117.93,249.48,145.15,233.6,628.23,Single-ply,SBD,M
Boys,124.74,4,Ryan Stoker,Breckenridge,119.93,249.48,145.15,231.33,625.96,Single-ply,SBD,M
Boys,124.74,5,Jake Barton,Callisburg,120.56,249.48,133.81,229.06,612.35,Single-ply,SBD,M
Boys,124.74,6,Tyler Ashman,Ponder,110.4,249.48,136.08,204.12,589.67,Single-ply,SBD,M
Boys,124.74,7,Gavin Buckaloo,Leonard,115.58,233.6,147.42,208.65,589.67,Single-ply,SBD,M
Boys,124.74,8,Nick Bernal,Breckenridge,112.85,217.72,92.99,204.12,514.83,Single-ply,SBD,M
Boys,124.74,9,Tyler Edwards,Pottsboro,114.31,197.31,108.86,181.44,487.61,Single-ply,SBD,M
Boys,124.74,10,Hunter York,Archer City,117.66,174.63,99.79,156.49,430.91,Single-ply,SBD,M
Boys,124.74+,1,Ismael Martinez,Strawn,125.01,244.94,145.15,213.19,603.28,Single-ply,SBD,M
Boys,124.74+,2,Jeffrey Cooley,Jacksboro,134.99,249.48,129.27,210.92,589.67,Single-ply,SBD,M
Boys,124.74+,3,Randel Furey,Sadler S & S Cons,125.01,217.72,136.08,208.65,562.45,Single-ply,SBD,M
Boys,124.74+,4,Tj Talashek,Sunnyvale,125.37,199.58,127.01,181.44,508.02,Single-ply,SBD,M
Boys,124.74+,5,Wes Fulce,Sadler S & S Cons,145.51,195.04,108.86,172.37,476.27,Single-ply,SBD,M
Boys,124.74+,6,Zachary Graham,Nocona,130.91,181.44,86.18,181.44,449.06,Single-ply,SBD,M
Boys,124.74+,7,Cameron Adkins,Leonard,129,181.44,90.72,163.29,435.45,Single-ply,SBD,M
Boys,124.74+,8,Anthony Flores,Wichita Falls City View,129.82,156.49,61.23,145.15,362.87,Single-ply,SBD,M
