Division,WeightClassKg,Place,Name,Team,BodyweightKg,Best3SquatKg,Best3BenchKg,Best3DeadliftKg,TotalKg,Equipment,Event,Sex
Boys,51.71,1,Jayce Glenn,Granbury,46.36,56.7,52.16,70.31,179.17,Single-ply,SBD,M
Boys,55.79,1,Chris Wimley,Granbury,54.66,102.06,74.84,129.27,306.17,Single-ply,SBD,M
Boys,55.79,2,Logan Thomas,Aledo,52.62,81.65,58.97,106.59,247.21,Single-ply,SBD,M
Boys,55.79,3,Baird Jernigan,Aledo,55.34,68.04,63.5,102.06,233.6,Single-ply,SBD,M
Boys,59.87,1,Otis Jackson,Aledo,59.87,113.4,86.18,122.47,322.05,Single-ply,SBD,M
Boys,59.87,2,Jesse Ramirez #5,Glen Rose,58.97,122.47,72.57,122.47,317.51,Single-ply,SBD,M
Boys,59.87,3,Luis Lopez #7,Granbury,58.97,83.91,79.38,133.81,297.1,Single-ply,SBD,M
Boys,59.87,4,Fabian Landin,Granbury,57.61,88.45,61.23,113.4,263.08,Single-ply,SBD,M
Boys,59.87,5,JoJo Talavera,Glen Rose,57.33,90.72,,124.74,215.46,Single-ply,SD,M
Boys,67.13,1,Steven Burns,Aledo,64.41,142.88,90.72,154.22,387.82,Single-ply,SBD,M
Boys,67.13,2,Conner Kinser,Granbury,62.14,92.99,70.31,129.27,292.57,Single-ply,SBD,M
Boys,67.13,3,Barron Barnes,Glen Rose,64.05,99.79,58.97,113.4,272.16,Single-ply,SBD,M
Boys,67.13,4,Darrius Evans,Granbury,67.13,,86.18,147.42,233.6,Single-ply,BD,M
Boys,74.84,1,Mariano Arriaga,Aledo,71.67,172.37,106.59,188.24,467.2,Single-ply,SBD,M
Boys,74.84,2,Jacob Clark,Granbury,73.48,147.42,95.25,185.97,428.64,Single-ply,SBD,M
Boys,74.84,3,Joe Rousseau,Aledo,68.31,129.27,99.79,176.9,405.97,Single-ply,SBD,M
Boys,74.84,4,Harrison Jones,Aledo,74.84,142.88,108.86,151.95,403.7,Single-ply,SBD,M
Boys,74.84,5,Raul Villegas,Granbury,73.94,136.08,102.06,154.22,392.36,Single-ply,SBD,M
Boys,74.84,6,Elijah Valencia,Aledo,70.31,108.86,90.72,136.08,335.66,Single-ply,SBD,M
Boys,74.84,7,Austin Roach,Glen Rose,74.53,106.59,81.65,147.42,335.66,Single-ply,SBD,M
Boys,74.84,8,Nate Ferguson,Glen Rose,74.8,136.08,,154.22,290.3,Single-ply,SD,M
Boys,82.1,1,Tatum Price #1,Aledo,77.11,192.78,122.47,181.44,496.68,Single-ply,SBD,M
Boys,82.1,2,Alonzo Molina,Granbury,78.47,165.56,115.67,190.51,471.74,Single-ply,SBD,M
Boys,82.1,3,Ricky Douglas,Glen Rose,81.65,167.83,115.67,181.44,464.93,Single-ply,SBD,M
Boys,82.1,4,Noah Loth,Aledo,81.65,165.56,108.86,174.63,449.06,Single-ply,SBD,M
Boys,82.1,5,Matthew Locke,Glen Rose,77.43,131.54,83.91,142.88,358.34,Single-ply,SBD,M
Boys,82.1,6,Caden Anderson,Aledo,81.65,113.4,92.99,149.69,356.07,Single-ply,SBD,M
Boys,82.1,7,Riley Davis #1,Aledo,78.47,124.74,88.45,136.08,349.27,Single-ply,SBD,M
Boys,82.1,8,Preston Lutgen,Granbury,81.19,111.13,88.45,136.08,335.66,Single-ply,SBD,M
Boys,82.1,9,Nick Langley,Glen Rose,81.65,102.06,61.23,136.08,299.37,Single-ply,SBD,M
Boys,82.1,10,Nick Rebolloso,Glen Rose,80.78,142.88,,154.22,297.1,Single-ply,SD,M
Boys,82.1,11,Brendan Chism,Granbury,79.83,,,185.97,185.97,Single-ply,D,M
Boys,89.81,1,Weston Reese,Aledo,83.91,176.9,122.47,199.58,498.95,Single-ply,SBD,M
Boys,89.81,2,Marcus Moseley,Glen Rose,86.64,163.29,106.59,183.7,453.59,Single-ply,SBD,M
Boys,89.81,3,Jacob Green,Granbury,88.9,156.49,95.25,185.97,437.72,Single-ply,SBD,M
Boys,99.79,1,Tyiler Walker,Granbury,99.11,219.99,140.61,210.92,571.53,Single-ply,SBD,M
Boys,99.79,2,Kody Krause,Granbury,99.34,213.19,127.01,229.06,569.26,Single-ply,SBD,M
Boys,99.79,3,Keeton Derouen,Granbury,95.25,208.65,115.67,235.87,560.19,Single-ply,SBD,M
Boys,99.79,4,Oliver Crow,Aledo,99.79,176.9,113.4,185.97,476.27,Single-ply,SBD,M
Boys,99.79,5,Michael Bass,Granbury,92.08,145.15,127.01,161.03,433.18,Single-ply,SBD,M
Boys,99.79,6,Tony Ramos #3,Glen Rose,93.26,154.22,102.06,176.9,433.18,Single-ply,SBD,M
Boys,99.79,7,Ryan Goodenough,Aledo,92.08,149.69,113.4,163.29,426.38,Single-ply,SBD,M
Boys,99.79,8,Brady Wood,Aledo,95.25,158.76,99.79,167.83,426.38,Single-ply,SBD,M
Boys,99.79,9,Tobie Beck,Granbury,99.34,147.42,99.79,156.49,403.7,Single-ply,SBD,M
Boys,99.79,10,Marc Moss,Glen Rose,93.26,136.08,90.72,158.76,385.55,Single-ply,SBD,M
Boys,99.79,11,Max Hood,Glen Rose,96.62,136.08,,158.76,294.84,Single-ply,SD,M
Boys,109.77,1,Ruben Veliz,Granbury,109.32,222.26,129.27,240.4,591.94,Single-ply,SBD,M
Boys,109.77,2,Davy Bostick,Granbury,109.32,217.72,131.54,199.58,548.85,Single-ply,SBD,M
Boys,109.77,3,Zach Powell,Glen Rose,108.59,199.58,131.54,204.12,535.24,Single-ply,SBD,M
Boys,109.77,4,Brandon Morris,Granbury,100.24,199.58,133.81,199.58,532.97,Single-ply,SBD,M
Boys,109.77,5,Logan Michael,Aledo,109.77,204.12,113.4,215.46,532.97,Single-ply,SBD,M
Boys,109.77,6,Matthew Bell,Aledo,104.96,158.76,115.67,172.37,446.79,Single-ply,SBD,M
Boys,109.77,7,Haden Chenault,Aledo,102.06,161.03,95.25,170.1,426.38,Single-ply,SBD,M
Boys,109.77,8,Parker Lutgen,Granbury,109.59,142.88,90.72,147.42,381.02,Single-ply,SBD,M
Boys,109.77,9,Saul Delgado,Glen Rose,108.73,163.29,,172.37,335.66,Single-ply,SD,M
Boys,124.74,1,Skylar Beck,Granbury,123.47,231.33,163.29,238.14,632.76,Single-ply,SBD,M
Boys,124.74,2,Hayden Shaw,Glen Rose,122.7,240.4,124.74,195.04,560.19,Single-ply,SBD,M
Boys,124.74,3,Zac Haynes,Aledo,123.38,226.8,142.88,181.44,551.11,Single-ply,SBD,M
Boys,124.74,4,Logan Escamilla,Aledo,122.47,204.12,136.08,181.44,521.63,Single-ply,SBD,M
Boys,124.74,5,Cash Deason,Granbury,121.56,176.9,120.2,195.04,492.15,Single-ply,SBD,M
Boys,124.74,6,Zach Eminger,Granbury,117.93,158.76,99.79,195.04,453.59,Single-ply,SBD,M
Boys,124.74,7,Zack Prestwood,Aledo,115.76,158.76,97.52,158.76,415.04,Single-ply,SBD,M
Boys,124.74,8,Grant Jefferis,Aledo,117.93,113.4,83.91,158.76,356.07,Single-ply,SBD,M
Boys,124.74,DQ,Jake Rollen,Glen Rose,122.79,,,,,Single-ply,SBD,M
Boys,124.74+,1,Koltin Bush,Granbury,132,210.92,136.08,210.92,557.92,Single-ply,SBD,M
Boys,124.74+,2,Jahir Orocio,Granbury,125.92,181.44,104.33,147.42,433.18,Single-ply,SBD,M
Boys,124.74+,3,Alex Striejewske,Aledo,131.54,136.08,90.72,158.76,385.55,Single-ply,SBD,M
Boys,124.74+,4,Ty Smith,Glen Rose,126.92,156.49,,170.1,326.59,Single-ply,SD,M
