Division,WeightClassKg,Place,Name,Team,BodyweightKg,Best3SquatKg,Best3BenchKg,Best3DeadliftKg,TotalKg,Equipment,Event,Sex
Boys,51.71,1,Jose Sanchez,Gilmer,50.8,188.24,104.33,172.37,464.93,Single-ply,SBD,M
Boys,51.71,2,Jacob Gray,Longview Pine Tree,51.66,140.61,77.11,138.35,356.07,Single-ply,SBD,M
Boys,51.71,3,Freddy Ponce,Gilmer,51.62,122.47,63.5,136.08,322.05,Single-ply,SBD,M
Boys,51.71,4,Preston Matlock,Tyler,47.54,79.38,47.63,86.18,213.19,Single-ply,SBD,M
Boys,55.79,1,BJ Stidham,Gladewater Sabine,54.7,204.12,104.33,199.58,508.02,Single-ply,SBD,M
Boys,55.79,2,Memphis Dorsey,Lindale,55.52,136.08,77.11,149.69,362.87,Single-ply,SBD,M
Boys,55.79,3,Daniel Irvin,Longview Pine Tree,54.98,122.47,79.38,142.88,344.73,Single-ply,SBD,M
Boys,55.79,4,Ryan Hammack,Elkhart,55.7,136.08,74.84,131.54,342.46,Single-ply,SBD,M
Boys,55.79,5,Kile Stripland,Gladewater Sabine,55.61,129.27,86.18,124.74,340.19,Single-ply,SBD,M
Boys,55.79,6,Mardreus Ward,Tyler,51.8,90.72,61.23,111.13,263.08,Single-ply,SBD,M
Boys,55.79,7,Lane Davis,Mount Pleasant Chapel Hill,54.61,90.72,52.16,,142.88,Single-ply,SB,M
Boys,59.87,1,Jaiden Garrick,Lindale,59.06,172.37,97.52,188.24,458.13,Single-ply,SBD,M
Boys,59.87,2,Noble Giles,Frankston,58.88,140.61,95.25,176.9,412.77,Single-ply,SBD,M
Boys,59.87,3,Jabier Bocanegra,Gilmer,58.51,163.29,88.45,147.42,399.16,Single-ply,SBD,M
Boys,59.87,4,Tyler Hunt,Palestine,58.69,129.27,99.79,149.69,378.75,Single-ply,SBD,M
Boys,59.87,5,Caden Pickard,Longview Pine Tree,58.69,124.74,81.65,138.35,344.73,Single-ply,SBD,M
Boys,59.87,6,Julio Palacios,Palestine,58.97,115.67,97.52,106.59,319.78,Single-ply,SBD,M
Boys,67.13,1,Orran Simmons,Longview Pine Tree,65.14,176.9,117.93,190.51,485.34,Single-ply,SBD,M
Boys,67.13,2,Coy Elton,Frankston,66.5,174.63,99.79,199.58,474,Single-ply,SBD,M
Boys,67.13,3,Julian Fierros,Longview Pine Tree,66.13,172.37,111.13,188.24,471.74,Single-ply,SBD,M
Boys,67.13,4,JJ Beckfield,Frankston,66.5,170.1,95.25,179.17,444.52,Single-ply,SBD,M
Boys,67.13,5,Lukas Enloe,Gilmer,67.13,163.29,99.79,172.37,435.45,Single-ply,SBD,M
Boys,67.13,6,Antonio Landaverde,Mount Pleasant,64.86,158.76,90.72,176.9,426.38,Single-ply,SBD,M
Boys,67.13,7,Devin Walters,Mount Pleasant Chapel Hill,67.13,149.69,97.52,172.37,419.57,Single-ply,SBD,M
Boys,67.13,8,Mayes Ethan,Mount Pleasant Chapel Hill,66.86,145.15,68.04,172.37,385.55,Single-ply,SBD,M
Boys,67.13,9,Kemon Ross,Palestine,61.33,140.61,79.38,149.69,369.68,Single-ply,SBD,M
Boys,67.13,10,Scotty Eldridge,Elkhart,65.23,142.88,77.11,149.69,369.68,Single-ply,SBD,M
Boys,67.13,11,Tyler Howell,Lindale,66.04,117.93,68.04,147.42,333.39,Single-ply,SBD,M
Boys,67.13,12,Alec Morris,Gladewater Sabine,66.59,176.9,102.06,,278.96,Single-ply,SB,M
Boys,67.13,DQ,Cagen Clark,Palestine,65.59,,,,,Single-ply,SB,M
Boys,74.84,1,Sean Collins,Gilmer,73.39,244.94,127.01,201.85,573.79,Single-ply,SBD,M
Boys,74.84,2,Billy Long,Ore City,70.85,206.38,115.67,210.92,532.97,Single-ply,SBD,M
Boys,74.84,3,Daniel Benitez,Lindale,70.85,179.17,95.25,210.92,485.34,Single-ply,SBD,M
Boys,74.84,4,Dustin Newman,Mount Pleasant Chapel Hill,73.48,190.51,90.72,195.04,476.27,Single-ply,SBD,M
Boys,74.84,5,Keandre Nesbitt,Longview Pine Tree,69.22,172.37,99.79,185.97,458.13,Single-ply,SBD,M
Boys,74.84,6,Fabian Marquez,Elkhart,74.03,170.1,86.18,170.1,426.38,Single-ply,SBD,M
Boys,74.84,7,Tayon Huntley,Palestine,67.95,145.15,83.91,170.1,399.16,Single-ply,SBD,M
Boys,74.84,8,Marcell Neumann,Ore City,71.4,131.54,90.72,151.95,374.21,Single-ply,SBD,M
Boys,74.84,9,Johnathan Peery,Laird Hill Leveretts Chapel,71.3,122.47,70.31,124.74,317.51,Single-ply,SBD,M
Boys,74.84,DQ,Trayson Wright,Overton,67.4,,,,,Single-ply,SBD,M
Boys,74.84,DQ,Cameron Cox,Gilmer,72.94,,,,,Single-ply,SBD,M
Boys,82.1,1,Jayden Smith #1,Longview Pine Tree,79.83,244.94,120.2,222.26,587.4,Single-ply,SBD,M
Boys,82.1,2,Gage Gosse,Frankston,80.56,170.1,120.2,185.97,476.27,Single-ply,SBD,M
Boys,82.1,3,Kole Stripland,Gladewater Sabine,77.75,165.56,104.33,156.49,426.38,Single-ply,SBD,M
Boys,82.1,4,Tucker Williams,Lindale,80.83,147.42,95.25,172.37,415.04,Single-ply,SBD,M
Boys,82.1,5,David Walters,Mount Pleasant Chapel Hill,77.56,156.49,74.84,172.37,403.7,Single-ply,SBD,M
Boys,82.1,6,Jacob Isbell,Mount Pleasant Chapel Hill,79.11,136.08,77.11,176.9,390.09,Single-ply,SBD,M
Boys,82.1,7,Eden Mayhall,Palestine,80.92,127.01,97.52,154.22,378.75,Single-ply,SBD,M
Boys,82.1,8,Daniel Jimenez,Ore City,77.66,127.01,83.91,163.29,374.21,Single-ply,SBD,M
Boys,82.1,9,Dawson Blear,Laird Hill Leveretts Chapel,80.38,154.22,90.72,124.74,369.68,Single-ply,SBD,M
Boys,82.1,10,Jeremiah Edwards,New London West Rusk,76.11,167.83,83.91,,251.74,Single-ply,SB,M
Boys,82.1,DQ,James Greenalch,New London West Rusk,75.39,,,,,Single-ply,SB,M
Boys,82.1,DQ,Oudariun McMiller,Tyler,77.93,,,,,Single-ply,SB,M
Boys,89.81,1,Deaundre Heath,Longview Pine Tree,86.91,224.53,124.74,208.65,557.92,Single-ply,SBD,M
Boys,89.81,2,Jonathan Woods #1,Mount Pleasant,87.45,206.38,124.74,195.04,526.17,Single-ply,SBD,M
Boys,89.81,3,Colton Munoz,Longview Pine Tree,88,190.51,124.74,210.92,526.17,Single-ply,SBD,M
Boys,89.81,4,Dustin Torres,Overton,88.9,215.46,102.06,192.78,510.29,Single-ply,SBD,M
Boys,89.81,5,Daniel Bautista,Mount Pleasant,83.28,204.12,99.79,204.12,508.02,Single-ply,SBD,M
Boys,89.81,6,Keshawn Nonette,Palestine,84.46,183.7,124.74,195.04,503.49,Single-ply,SBD,M
Boys,89.81,7,Carson Hester,Gladewater Sabine,85.28,174.63,129.27,176.9,480.81,Single-ply,SBD,M
Boys,89.81,8,Brittin Pierce,Overton,88.54,147.42,102.06,161.03,410.5,Single-ply,SBD,M
Boys,89.81,9,Taylor Nealy,Gilmer,86.09,151.95,99.79,142.88,394.63,Single-ply,SBD,M
Boys,89.81,10,Tristian Willmeth,Palestine,88.54,129.27,79.38,158.76,367.41,Single-ply,SBD,M
Boys,89.81,11,Dane Warren,Mount Pleasant Chapel Hill,88.54,124.74,65.77,142.88,333.39,Single-ply,SBD,M
Boys,89.81,12,Taylor Wilson,Gladewater Sabine,87.27,113.4,90.72,113.4,317.51,Single-ply,SBD,M
Boys,99.79,1,Cedric Hicks,Palestine,99.34,244.94,142.88,204.12,591.94,Single-ply,SBD,M
Boys,99.79,2,Kadarian Asbell,Tyler,94.53,226.8,138.35,222.26,587.4,Single-ply,SBD,M
Boys,99.79,3,Darrell Bush,Gilmer,92.62,226.8,111.13,208.65,546.58,Single-ply,SBD,M
Boys,99.79,4,Andrew Reed,Lindale,92.44,215.46,131.54,185.97,532.97,Single-ply,SBD,M
Boys,99.79,5,Jacob Nugent,Elkhart,99.43,163.29,102.06,190.51,455.86,Single-ply,SBD,M
Boys,99.79,6,Jarot Ritter,Gilmer,99.43,179.17,102.06,170.1,451.32,Single-ply,SBD,M
Boys,99.79,7,Noah Ragsdale,Mount Pleasant Chapel Hill,94.71,145.15,79.38,149.69,374.21,Single-ply,SBD,M
Boys,99.79,8,Darren Brown,Laird Hill Leveretts Chapel,91.81,124.74,102.06,124.74,351.53,Single-ply,SBD,M
Boys,99.79,NS,Fernando Gutierrezq,Ore City,,,,,,Single-ply,SBD,M
Boys,109.77,1,George Lias,Mount Pleasant,109.59,283.5,131.54,226.8,641.83,Single-ply,SBD,M
Boys,109.77,2,Jashon Pogue,Mount Pleasant,108.14,213.19,131.54,254.01,598.74,Single-ply,SBD,M
Boys,109.77,3,Jesse Owens,Frankston,105.05,235.87,136.08,219.99,591.94,Single-ply,SBD,M
Boys,109.77,4,Bladen Collom,Gilmer,107.68,231.33,127.01,229.06,587.4,Single-ply,SBD,M
Boys,109.77,5,Juan Perez #4,Frankston,100.33,215.46,124.74,240.4,580.6,Single-ply,SBD,M
Boys,109.77,6,Matthew Guevara,Ore City,103.42,219.99,151.95,199.58,571.53,Single-ply,SBD,M
Boys,109.77,7,Jagger Ochoa,Lindale,107.23,226.8,99.79,213.19,539.77,Single-ply,SBD,M
Boys,109.77,8,Parker Mizell,New London West Rusk,101.51,195.04,124.74,192.78,512.56,Single-ply,SBD,M
Boys,109.77,9,Zach Baggett #1,Lindale,104.96,195.04,115.67,195.04,505.76,Single-ply,SBD,M
Boys,109.77,10,Zach Keys,Longview Pine Tree,106.68,190.51,104.33,163.29,458.13,Single-ply,SBD,M
Boys,109.77,11,Raul Cazares,Elkhart,100.43,181.44,90.72,181.44,453.59,Single-ply,SBD,M
Boys,109.77,12,Joel Guerrero,Mount Pleasant,106.41,272.16,142.88,,415.04,Single-ply,SB,M
Boys,109.77,13,Justin Pomykal,Gladewater Sabine,100.24,127.01,86.18,133.81,347,Single-ply,SBD,M
Boys,109.77,14,Dartainian Gomez,Overton,105.41,136.08,,,136.08,Single-ply,S,M
Boys,124.74,1,Keith Burkes,Longview Pine Tree,123.56,249.48,129.27,244.94,623.69,Single-ply,SBD,M
Boys,124.74,2,Jace Phillips #1,Lindale,119.57,249.48,129.27,226.8,605.55,Single-ply,SBD,M
Boys,124.74,3,Moses Medrano,Lindale,111.49,217.72,113.4,213.19,544.31,Single-ply,SBD,M
Boys,124.74,4,Ivan Elizando,Mount Pleasant,113.31,219.99,106.59,208.65,535.24,Single-ply,SBD,M
Boys,124.74,5,Ja'Christopher Crawford,Center,124.56,210.92,90.72,210.92,512.56,Single-ply,SBD,M
Boys,124.74,6,Pedro Garcia-Castillo,Palestine,119.66,170.1,90.72,181.44,442.25,Single-ply,SBD,M
Boys,124.74,7,Bryce Sweeny,Elkhart,115.94,149.69,68.04,181.44,399.16,Single-ply,SBD,M
Boys,124.74,8,Montrell Bush,Gilmer,120.29,217.72,124.74,,342.46,Single-ply,SB,M
Boys,124.74,9,Kimbrick McCaney,Tyler,111.58,213.19,,,213.19,Single-ply,S,M
Boys,124.74,DQ,Trevan Wright,Overton,121.11,,,,,Single-ply,S,M
Boys,124.74+,1,Austin Terry,Gilmer,135.53,249.48,136.08,229.06,614.62,Single-ply,SBD,M
Boys,124.74+,2,Weldon Brooks,Elkhart,124.83,226.8,149.69,219.99,596.47,Single-ply,SBD,M
Boys,124.74+,3,LaTravion Hawkins,Tyler,133.9,213.19,142.88,213.19,569.26,Single-ply,SBD,M
Boys,124.74+,4,Ashton Williams,Tyler,154.4,229.06,142.88,188.24,560.19,Single-ply,SBD,M
Boys,124.74+,5,Luke Sandifer,Lindale,130.36,226.8,108.86,197.31,532.97,Single-ply,SBD,M
Boys,124.74+,6,Jason Lazaro,Overton,134.44,226.8,102.06,185.97,514.83,Single-ply,SBD,M
Boys,124.74+,7,Jadarlon Key,Longview Pine Tree,139.71,185.97,99.79,210.92,496.68,Single-ply,SBD,M
Boys,124.74+,8,Jesse Bullard,Ore City,128.46,192.78,115.67,161.03,469.47,Single-ply,SBD,M
Boys,124.74+,9,Tradrion Sadler,Palestine,160.48,192.78,136.08,,328.85,Single-ply,SB,M
